10001	10010	10011	10018	10016	
10002	10013	10012	10003	10009	exterior	10038	
10003	10002	10012	10011	10010	10009	
10005	10004_1	10006	10038	10004_0	10038	
10006	10004_1	10280	vertex:10282	10007	10038	10005	
10007	10006	vertex:10280	10282	10013	10038	
10009	10003	10010	exterior	10002	
10010	10003	10011	10001	10016	exterior	10009	
10011	exterior	10018	10001	10010	10003	10012	10014	
10012	10014	10011	10003	10002	10013	
10013	10282	exterior	10014	10012	10002	10038	10007	
10014	exterior	10011	10012	10013	
10016	10001	10018	vertex:10036	10017	exterior	10010	
10017	vertex:10018	10036	10019	10022	exterior	10016	
10018	10011	exterior	10019	10036	vertex:10017	10016	10001	
10030	10027	10031	10039	10037	
10019	10018	exterior	10069	10023	exterior	10022	10017	10036	
10022	10019	exterior	10065	10021_0	exterior	10017	
10023	10069	10024	exterior	10019	
10024	10023	10069	exterior	10027	10025	exterior	
10025	10024	10027	vertex:10026_0	10027	10026_1	exterior	
10027	10024	exterior	10031	10030	10037	10035_0	10026_1	10025	vertex:10026_0	10025	
10028	exterior	10128	exterior	10075	
10029	exterior	10026_1	10035_0	exterior	10128	
10031	exterior	10032_1	10039	10030	10027	
10033	10039	10032_1	10032_0	10032_1	10034	10040	10034	exterior	
10034	10032_1	exterior	10033	10040	10033	
10037	10030	10039	exterior	10035_0	10027	
10036	10019	10017	vertex:10016	10018	
10038	10006	10007	10013	10002	exterior	10004_1	10005	10004_0	10005	
10040	10034	10033	
11104	11101	11377_1	
11105	11377_1	11103_0	11377_1	11103_1	11102	exterior	11370_1	
10039	10030	10031	10032_1	10033	exterior	10037	
10128	exterior	10029	exterior	10028	
10044	exterior	
10065	10021_0	10022	exterior	10021_1	exterior	
10069	10019	exterior	10024	10023	
10075	exterior	10021_1	exterior	10028	
10280	exterior	10282	vertex:10007	10006	10004_1	
10282	exterior	10013	10007	vertex:10006	10280	
11106	exterior	11102	11103_1	11101	
10302	vertex:10303_2	10303_1	exterior	10310	10314	10303_1	
10304	10306	10301_1	exterior	10305	
10451	exterior	10452	10456	10455	10454	
10305	10304	exterior	10306	
10306	10312	10314	10301_1	10304	10305	exterior	10308	
10308	10306	exterior	10312	
10309	exterior	10307_0	exterior	10307_1	exterior	10314	10312	
10310	10302	exterior	10301_1	10314	
10312	10309	10314	10306	10308	exterior	
10314	10312	10309	exterior	10303_1	vertex:10303_0	10303_1	10302	10310	10301_1	10306	
10456	10451	10452	10457	exterior	10457	exterior	10460	10459	10455	
10452	exterior	10453	10457	10456	10451	
10453	exterior	10468	vertex:10458	10457	10452	
10454	10451	10455	10474	exterior	
10455	10451	10456	10459	10474	10454	
10457	exterior	10456	exterior	10456	10452	10453	vertex:10468	10458	10460	
10458	vertex:10453	10468	10467	exterior	10460	10457	
10459	10456	10460	10472	vertex:10473	10474	10455	
10460	10456	exterior	10457	10458	exterior	10462	10472	10459	
11004	11429_0	11426	11362	exterior	
11101	11109	exterior	11106	11103_1	11377_1	11104	11377_1	11378	exterior	
10462	10472	10460	exterior	10467	vertex:10469	10461_1	exterior	10473	
10463	exterior	10471	10467	10468	
10465	10461_1	10475	exterior	
10466	10467	10470	exterior	10475	10469	
10467	10458	10468	10463	10471	exterior	10470	10466	10469	vertex:10461_1	10462	exterior	
10468	vertex:10457	10453	exterior	10463	10467	10458	
10469	vertex:10462	10467	10466	10475	10461_1	vertex:10461_0	10461_1	
10470	10466	10467	exterior	
11102	exterior	11105	11103_1	11106	
11109	exterior	11101
10471	exterior	10467	10463	
10472	vertex:10474	10459	10460	10462	10473	
10473	10474	vertex:10459	10472	10462	exterior	
10474	10455	10459	vertex:10472	10473	exterior	10454	
10475	10469	10466	exterior	10464_3	exterior	10465	10461_1	
11201	11231	exterior	11205	11217	
11203	11226	11225	11213	11212	11236_1	11234_1	11210	
11204	11223	11214	11228	11219	11218	11230	
11205	11217	11201	exterior	11211_2	11206	11216	11238	
11206	11216	11205	11211_2	11237	11221	
11207	11233	11221	11237	11385	11208_1	11208_0	11239_1	11236_1	11212	
11209	exterior	11220	11228	
11210	11229	11230	11226	11203	11234_1	
11212	11203	11213	11233	11207	11236_1	
11213	11225	11216	11233	11212	11203	
11218	11204	11219	11215	exterior	11226	11230	
11214	11228	11204	11223	11224	exterior	
11215	exterior	11231	11217	11238	exterior	11218	11219	11232	
11216	11225	11238	11205	11206	11221	11233	11213	
11217	11215	11231	11201	11205	11238	
11219	11228	11220	11232	11215	11218	11204	
11220	11228	11209	exterior	11232	exterior	11232	11219	
11221	11233	11216	11206	11237	11207	
11222	vertex:11211_0	11211_2	exterior	11211_2	
11223	11214	11204	11230	11229	11235_1	11224	
11224	11214	11223	11235_1	exterior	
11225	exterior	11238	11216	11213	11203	11226
11226	11230	11218	exterior	11225	11203	11210	
11228	11214	exterior	11209	11220	11219	11204	
11230	11204	11218	11226	11210	11229	11223	
11415	11375	11435	11418	
11229	11223	11230	11210	11234_1	exterior	11235_0	exterior	11235_1	
11231	11201	11217	11215	exterior	
11358	11355	11354	11357	11360	11361	11365	
11232	exterior	11215	11219	11220	exterior	11220	
11233	11213	11216	11221	11207	11212	
11237	11206	11211_2	exterior	11211_1	exterior	11378	11385	11207	11221	
11238	11215	11217	11205	11216	11225	exterior	
11354	11355	11368	exterior	11356	11357	11358	
11355	11368	11354	11358	11365	11367	
11356	exterior	11357	11354	
11357	11356	exterior	11360	11358	11354	
11360	11358	11357	exterior	11361	
11372	11377_1	11370_1	11369	11368	11373	
11361	11364	11365	11358	11360	exterior	11362	
11362	11361	exterior	11363	exterior	11004	11426	11427	11364	
11416	11208_1	11421	11418	11419	11417	
11363	exterior	11362	
11364	11366	11365	11361	11362	11427	
11373	11378	11377_1	11372	11368	11374	11379
11365	11367	11355	11358	11361	11364	11366	
11366	11423_1	11432	11423_0	11432	11367	11365	11364	11427	
11367	11375	11368	11355	11365	11366	11432	11435	
11374	11385	11379	11373	11368	11375	
11368	11374	11373	11372	11369	exterior	11354	11355	11367	11375	
11417	11208_1	11416	11419	11420	11414_2	
11369	11370_1	exterior	11368	11372	
11375	11418	11385	11374	11368	11367	11435	11415	
11379	11378	11373	11374	11385	
11378	11385	11237	exterior	11101	11377_1	vertex:11377_0	11377_1	11373	11379	
11421	11208_1	11385	11418	11416	
11422	11434	11413	11411	exterior	
11385	11208_1	11207	11237	11378	11379	11374	11375	11418	11421	
11411	11413	11412	11429_1	exterior	11422	
11412	11434	11433	11423_1	11429_1	11411	11413	
11413	11434	11412	11411	11422	
11420	11434	11414_2	11417	11419	11435	11436	
11418	11421	11385	11375	11415	11435	11419	11416	
11419	11417	11416	11418	11435	11420	
11426	11428	11427	11362	11004	11429_0	exterior	
11427	11423_1	11366	11364	11362	11426	11428	
11428	11427	11426	exterior	11429_1	11423_1	
11436	11420	11435	11434	
11691	exterior	11692	
11692	exterior	11691	exterior	11693_0	
11432	11435	11367	11366	11423_0	11366	11423_1	11433	
11433	11435	11432	11423_1	11412	11434	
11434	exterior	11414_2	11420	11436	11435	11433	11412	11413	11422	
11435	11420	11419	11418	11415	11375	11367	11432	11433	11434	11436	
11694	11697	exterior	11693_0	exterior	
11697	11694	exterior	
10026_0	10025	vertex:10027
10026_1	10025	10027	10035_0	10029	exterior	
10004_0	10005	10038
10004_1	10280	10006	10005	10038	exterior	
10021_0	10022	10065	exterior	
10021_1	exterior	10075	exterior	10065	
10032_0	10032_1	10033	
10032_1	exterior	10034	10033	10032_0	10033	10039	10031	
10035_0	10026_1	10027	10037	exterior	10029	
10035_1	exterior	
10301_0	10304	
10301_1	10306	10314	10310	exterior	10304	
10303_0	vertex:10303_1	10314	
10303_1	vertex:10303_0	10314	exterior	10302	vertex:10303_2	10302	10314	
10303_2	10302	vertex:10303_1
10307_0	10309	exterior	
10307_1	exterior	10309	
10461_0	10469	vertex:10461_1
10461_1	10462	vertex:10467	10469	vertex:10461_0	10469	10475	10465	exterior	
10464_0	exterior	
10464_1	exterior	
10464_2	exterior	
10464_3	10475	exterior	
10464_4	exterior	
11103_0	11105	11377_1	
11103_1	11106	11102	11105	11377_1	11101	
11208_0	11239_1	11207	exterior	
11208_1	exterior	11207	11385	11421	11416	11417	11414_2	exterior	11414_0	
11211_0	11222	vertex:11211_2
11211_1	11237	exterior	
11211_2	11205	exterior	11222	vertex:11211_0	11222	exterior	11237	11206	
11234_0	11235_1	exterior	
11234_1	11210	11203	11236_1	exterior	11229	
11235_0	exterior	11229	
11235_1	11224	11223	11229	exterior	11234_0	exterior	
11236_0	11239_0	exterior
11236_1	11203	11212	11207	11239_1	exterior	11239_0	exterior	11234_1	
11239_0	11236_0	exterior	11236_1	exterior
11239_1	11236_1	11207	11208_0	exterior	
11370_0	exterior	
11370_1	11377_1	11105	exterior	11369	11372	
11377_0	vertex:11377_1	11378	
11377_1	vertex:11377_0	11378	11101	11104	11101	11103_1	11105	11103_0	11105	11370_1	11372	11373	11378	
11414_0	11208_1	exterior	
11414_1	exterior	
11414_2	11208_1	11417	11420	11434	exterior	
11423_0	11432	11366	
11423_1	11432	11366	11427	11428	11429_1	11412	11433	
11693_0	exterior	11692	exterior	11694	
11693_1	exterior	
11429_0	11426	11004	exterior	
11429_1	11412	11423_1	11428	exterior	11411	